999
dxflib 3.17.0.0
  0
SECTION
  2
HEADER
  9
$ACADVER
  1
AC1015
  9
$HANDSEED
  5
FFFF
  9
$DIMADEC
 70
2
  9
$DIMASZ
 40
20.0
  9
$DIMAUNIT
 70
0
  9
$DIMAZIN
 70
0
  9
$DIMDEC
 70
2
  9
$DIMDLI
 40
40.0
  9
$DIMDSEP
 70
46
  9
$DIMEXE
 40
10.0
  9
$DIMEXO
 40
5.0
  9
$DIMGAP
 40
5.0
  9
$DIMLUNIT
 70
2
  9
$DIMSCALE
 40
1.0
  9
$DIMTSZ
 40
0.0
  9
$DIMTXT
 40
20.0
  9
$DIMZIN
 70
0
  9
$DWGCODEPAGE
  3
ANSI_1252
  9
$INSUNITS
 70
4
  9
$LTSCALE
 40
1.0
  9
$MAXACTVP
 70
64
  9
$MEASUREMENT
 70
1
  9
$PDMODE
 70
98
  9
$PDSIZE
 40
0.0
  0
ENDSEC
  0
SECTION
  2
TABLES
  0
TABLE
  2
VPORT
  5
8
100
AcDbSymbolTable
 70
1
  0
VPORT
  5
30
100
AcDbSymbolTableRecord
100
AcDbViewportTableRecord
  2
*Active
 70
0
 10
0.0
 20
0.0
 11
1.0
 21
1.0
 12
286.30555555555549
 22
148.5
 13
0.0
 23
0.0
 14
10.0
 24
10.0
 15
10.0
 25
10.0
 16
0.0
 26
0.0
 36
1.0
 17
0.0
 27
0.0
 37
0.0
 40
297.0
 41
1.92798353909465
 42
50.0
 43
0.0
 44
0.0
 50
0.0
 51
0.0
 71
0
 72
100
 73
1
 74
3
 75
1
 76
1
 77
0
 78
0
281
0
 65
1
110
0.0
120
0.0
130
0.0
111
1.0
121
0.0
131
0.0
112
0.0
122
1.0
132
0.0
 79
0
146
0.0
  0
ENDTAB
  0
TABLE
  2
LTYPE
  5
5
100
AcDbSymbolTable
 70
41
  0
LTYPE
  5
16
100
AcDbSymbolTableRecord
100
AcDbLinetypeTableRecord
  2
Continuous
 70
0
  3
Solid line
 72
65
 73
0
 40
0.0
  0
LTYPE
  5
31
100
AcDbSymbolTableRecord
100
AcDbLinetypeTableRecord
  2
DASHDOT
 70
0
  3
Dash dot __ . __ . __ . __ . __ . __ . __ . __
 72
65
 73
4
 40
25.399999999999999
 49
12.699999999999999
 74
0
 49
-6.3499999999999996
 74
0
 49
0.0
 74
0
 49
-6.3499999999999996
 74
0
  0
LTYPE
  5
32
100
AcDbSymbolTableRecord
100
AcDbLinetypeTableRecord
  2
HIDDENX2
 70
0
  3
Hidden (2x) ____ ____ ____ ____ ____ ____ ____ 
 72
65
 73
2
 40
19.049999999999997
 49
12.699999999999999
 74
0
 49
-6.3499999999999996
 74
0
  0
LTYPE
  5
33
100
AcDbSymbolTableRecord
100
AcDbLinetypeTableRecord
  2
ACAD_ISO05W100
 70
0
  3
ISO long-dash double-dot ____ .. ____ .. ____ . 
 72
65
 73
6
 40
33.0
 49
24.0
 74
0
 49
-3.0
 74
0
 49
0.0
 74
0
 49
-3.0
 74
0
 49
0.0
 74
0
 49
-3.0
 74
0
  0
LTYPE
  5
34
100
AcDbSymbolTableRecord
100
AcDbLinetypeTableRecord
  2
ACAD_ISO12W100
 70
0
  3
ISO dash double-dot __ . . __ . . __ . . __ . . 
 72
65
 73
6
 40
21.0
 49
12.0
 74
0
 49
-3.0
 74
0
 49
0.0
 74
0
 49
-3.0
 74
0
 49
0.0
 74
0
 49
-3.0
 74
0
  0
LTYPE
  5
35
100
AcDbSymbolTableRecord
100
AcDbLinetypeTableRecord
  2
ACAD_ISO15W100
 70
0
  3
ISO double-dash triple-dot __ __ . . . __ __ . .
 72
65
 73
10
 40
39.0
 49
12.0
 74
0
 49
-3.0
 74
0
 49
12.0
 74
0
 49
-3.0
 74
0
 49
0.0
 74
0
 49
-3.0
 74
0
 49
0.0
 74
0
 49
-3.0
 74
0
 49
0.0
 74
0
 49
-3.0
 74
0
  0
LTYPE
  5
36
100
AcDbSymbolTableRecord
100
AcDbLinetypeTableRecord
  2
ACAD_ISO09W100
 70
0
  3
ISO long-dash double-short-dash ____ __ __ ____
 72
65
 73
6
 40
45.0
 49
24.0
 74
0
 49
-3.0
 74
0
 49
6.0
 74
0
 49
-3.0
 74
0
 49
6.0
 74
0
 49
-3.0
 74
0
  0
LTYPE
  5
37
100
AcDbSymbolTableRecord
100
AcDbLinetypeTableRecord
  2
HIDDEN2
 70
0
  3
Hidden (.5x) _ _ _ _ _ _ _ _ _ _ _ _ _ _ _ _ _ 
 72
65
 73
2
 40
4.7624999999999993
 49
3.1749999999999998
 74
0
 49
-1.5874999999999999
 74
0
  0
LTYPE
  5
38
100
AcDbSymbolTableRecord
100
AcDbLinetypeTableRecord
  2
ACAD_ISO06W100
 70
0
  3
ISO long-dash triple-dot ____ ... ____ ... ____
 72
65
 73
8
 40
36.0
 49
24.0
 74
0
 49
-3.0
 74
0
 49
0.0
 74
0
 49
-3.0
 74
0
 49
0.0
 74
0
 49
-3.0
 74
0
 49
0.0
 74
0
 49
-3.0
 74
0
  0
LTYPE
  5
39
100
AcDbSymbolTableRecord
100
AcDbLinetypeTableRecord
  2
CENTER
 70
0
  3
Center ____ _ ____ _ ____ _ ____ _ ____ _ ____
 72
65
 73
4
 40
50.800000000000004
 49
31.75
 74
0
 49
-6.3499999999999996
 74
0
 49
6.3499999999999996
 74
0
 49
-6.3499999999999996
 74
0
  0
LTYPE
  5
3A
100
AcDbSymbolTableRecord
100
AcDbLinetypeTableRecord
  2
ACAD_ISO14W100
 70
0
  3
ISO dash triple-dot __ . . . __ . . . __ . . . _
 72
65
 73
8
 40
24.0
 49
12.0
 74
0
 49
-3.0
 74
0
 49
0.0
 74
0
 49
-3.0
 74
0
 49
0.0
 74
0
 49
-3.0
 74
0
 49
0.0
 74
0
 49
-3.0
 74
0
  0
LTYPE
  5
3B
100
AcDbSymbolTableRecord
100
AcDbLinetypeTableRecord
  2
PHANTOMX2
 70
0
  3
Phantom (2x) ____________    ____    ____   _
 72
65
 73
6
 40
127.00000000000001
 49
63.5
 74
0
 49
-12.699999999999999
 74
0
 49
12.699999999999999
 74
0
 49
-12.699999999999999
 74
0
 49
12.699999999999999
 74
0
 49
-12.699999999999999
 74
0
  0
LTYPE
  5
3C
100
AcDbSymbolTableRecord
100
AcDbLinetypeTableRecord
  2
PHANTOM
 70
0
  3
Phantom ______  __  __  ______  __  __  ______ 
 72
65
 73
6
 40
63.500000000000007
 49
31.75
 74
0
 49
-6.3499999999999996
 74
0
 49
6.3499999999999996
 74
0
 49
-6.3499999999999996
 74
0
 49
6.3499999999999996
 74
0
 49
-6.3499999999999996
 74
0
  0
LTYPE
  5
3D
100
AcDbSymbolTableRecord
100
AcDbLinetypeTableRecord
  2
DIVIDE
 70
0
  3
Divide ____ . . ____ . . ____ . . ____ . . ____
 72
65
 73
6
 40
31.75
 49
12.699999999999999
 74
0
 49
-6.3499999999999996
 74
0
 49
0.0
 74
0
 49
-6.3499999999999996
 74
0
 49
0.0
 74
0
 49
-6.3499999999999996
 74
0
  0
LTYPE
  5
3E
100
AcDbSymbolTableRecord
100
AcDbLinetypeTableRecord
  2
BORDER
 70
0
  3
Border __ __ . __ __ . __ __ . __ __ . __ __ .
 72
65
 73
6
 40
44.449999999999996
 49
12.699999999999999
 74
0
 49
-6.3499999999999996
 74
0
 49
12.699999999999999
 74
0
 49
-6.3499999999999996
 74
0
 49
0.0
 74
0
 49
-6.3499999999999996
 74
0
  0
LTYPE
  5
3F
100
AcDbSymbolTableRecord
100
AcDbLinetypeTableRecord
  2
ACAD_ISO02W100
 70
0
  3
ISO dash __ __ __ __ __ __ __ __ __ __ __ __ __
 72
65
 73
2
 40
15.0
 49
12.0
 74
0
 49
-3.0
 74
0
  0
LTYPE
  5
40
100
AcDbSymbolTableRecord
100
AcDbLinetypeTableRecord
  2
CENTER2
 70
0
  3
Center (.5x) ___ _ ___ _ ___ _ ___ _ ___ _ ___
 72
65
 73
4
 40
28.575000000000003
 49
19.050000000000001
 74
0
 49
-3.1749999999999998
 74
0
 49
3.1749999999999998
 74
0
 49
-3.1749999999999998
 74
0
  0
LTYPE
  5
41
100
AcDbSymbolTableRecord
100
AcDbLinetypeTableRecord
  2
DIVIDEX2
 70
0
  3
Divide (2x) ________  .  .  ________  .  .  _
 72
65
 73
6
 40
63.5
 49
25.399999999999999
 74
0
 49
-12.699999999999999
 74
0
 49
0.0
 74
0
 49
-12.699999999999999
 74
0
 49
0.0
 74
0
 49
-12.699999999999999
 74
0
  0
LTYPE
  5
42
100
AcDbSymbolTableRecord
100
AcDbLinetypeTableRecord
  2
ACAD_ISO10W100
 70
0
  3
ISO dash dot __ . __ . __ . __ . __ . __ . __ . 
 72
65
 73
4
 40
18.0
 49
12.0
 74
0
 49
-3.0
 74
0
 49
0.0
 74
0
 49
-3.0
 74
0
  0
LTYPE
  5
43
100
AcDbSymbolTableRecord
100
AcDbLinetypeTableRecord
  2
DOT
 70
0
  3
Dot . . . . . . . . . . . . . . . . . . . . . . . .
 72
65
 73
2
 40
6.3499999999999996
 49
0.0
 74
0
 49
-6.3499999999999996
 74
0
  0
LTYPE
  5
44
100
AcDbSymbolTableRecord
100
AcDbLinetypeTableRecord
  2
DASHDOTX2
 70
0
  3
Dash dot (2x) ____  .  ____  .  ____  .  ___
 72
65
 73
4
 40
50.799999999999997
 49
25.399999999999999
 74
0
 49
-12.699999999999999
 74
0
 49
0.0
 74
0
 49
-12.699999999999999
 74
0
  0
LTYPE
  5
45
100
AcDbSymbolTableRecord
100
AcDbLinetypeTableRecord
  2
DOT2
 70
0
  3
Dot (.5x) ........................................
 72
65
 73
2
 40
3.1749999999999998
 49
0.0
 74
0
 49
-3.1749999999999998
 74
0
  0
LTYPE
  5
46
100
AcDbSymbolTableRecord
100
AcDbLinetypeTableRecord
  2
BORDER2
 70
0
  3
Border (.5x) __.__.__.__.__.__.__.__.__.__.__.
 72
65
 73
6
 40
22.224999999999998
 49
6.3499999999999996
 74
0
 49
-3.1749999999999998
 74
0
 49
6.3499999999999996
 74
0
 49
-3.1749999999999998
 74
0
 49
0.0
 74
0
 49
-3.1749999999999998
 74
0
  0
LTYPE
  5
47
100
AcDbSymbolTableRecord
100
AcDbLinetypeTableRecord
  2
DASHDOT2
 70
0
  3
Dash dot (.5x) _._._._._._._._._._._._._._._.
 72
65
 73
4
 40
12.699999999999999
 49
6.3499999999999996
 74
0
 49
-3.1749999999999998
 74
0
 49
0.0
 74
0
 49
-3.1749999999999998
 74
0
  0
LTYPE
  5
48
100
AcDbSymbolTableRecord
100
AcDbLinetypeTableRecord
  2
ACAD_ISO13W100
 70
0
  3
ISO double-dash double-dot __ __ . . __ __ . . _
 72
65
 73
8
 40
36.0
 49
12.0
 74
0
 49
-3.0
 74
0
 49
12.0
 74
0
 49
-3.0
 74
0
 49
0.0
 74
0
 49
-3.0
 74
0
 49
0.0
 74
0
 49
-3.0
 74
0
  0
LTYPE
  5
49
100
AcDbSymbolTableRecord
100
AcDbLinetypeTableRecord
  2
CENTERX2
 70
0
  3
Center (2x) ________  __  ________  __  _____
 72
65
 73
4
 40
101.60000000000001
 49
63.5
 74
0
 49
-12.699999999999999
 74
0
 49
12.699999999999999
 74
0
 49
-12.699999999999999
 74
0
  0
LTYPE
  5
4A
100
AcDbSymbolTableRecord
100
AcDbLinetypeTableRecord
  2
ACAD_ISO08W100
 70
0
  3
ISO long-dash short-dash ____ __ ____ __ ____ _
 72
65
 73
4
 40
36.0
 49
24.0
 74
0
 49
-3.0
 74
0
 49
6.0
 74
0
 49
-3.0
 74
0
  0
LTYPE
  5
4B
100
AcDbSymbolTableRecord
100
AcDbLinetypeTableRecord
  2
DOTX2
 70
0
  3
Dot (2x) .  .  .  .  .  .  .  .  .  .  .  .  .  .
 72
65
 73
2
 40
12.699999999999999
 49
0.0
 74
0
 49
-12.699999999999999
 74
0
  0
LTYPE
  5
4C
100
AcDbSymbolTableRecord
100
AcDbLinetypeTableRecord
  2
PHANTOM2
 70
0
  3
Phantom (.5x) ___ _ _ ___ _ _ ___ _ _ ___ _ _
 72
65
 73
6
 40
31.750000000000004
 49
15.875
 74
0
 49
-3.1749999999999998
 74
0
 49
3.1749999999999998
 74
0
 49
-3.1749999999999998
 74
0
 49
3.1749999999999998
 74
0
 49
-3.1749999999999998
 74
0
  0
LTYPE
  5
4D
100
AcDbSymbolTableRecord
100
AcDbLinetypeTableRecord
  2
DASHEDX2
 70
0
  3
Dashed (2x) ____  ____  ____  ____  ____  ___
 72
65
 73
2
 40
38.099999999999994
 49
25.399999999999999
 74
0
 49
-12.699999999999999
 74
0
  0
LTYPE
  5
14
100
AcDbSymbolTableRecord
100
AcDbLinetypeTableRecord
  2
BYBLOCK
 70
0
  3

 72
65
 73
0
 40
0.0
  0
LTYPE
  5
4E
100
AcDbSymbolTableRecord
100
AcDbLinetypeTableRecord
  2
ACAD_ISO07W100
 70
0
  3
ISO dot . . . . . . . . . . . . . . . . . . . . 
 72
65
 73
2
 40
3.0
 49
0.0
 74
0
 49
-3.0
 74
0
  0
LTYPE
  5
15
100
AcDbSymbolTableRecord
100
AcDbLinetypeTableRecord
  2
BYLAYER
 70
0
  3

 72
65
 73
0
 40
0.0
  0
LTYPE
  5
4F
100
AcDbSymbolTableRecord
100
AcDbLinetypeTableRecord
  2
DASHED
 70
0
  3
Dashed __ __ __ __ __ __ __ __ __ __ __ __ __ _
 72
65
 73
2
 40
19.049999999999997
 49
12.699999999999999
 74
0
 49
-6.3499999999999996
 74
0
  0
LTYPE
  5
50
100
AcDbSymbolTableRecord
100
AcDbLinetypeTableRecord
  2
DASHED2
 70
0
  3
Dashed (.5x) _ _ _ _ _ _ _ _ _ _ _ _ _ _ _ _ _ 
 72
65
 73
2
 40
9.5249999999999986
 49
6.3499999999999996
 74
0
 49
-3.1749999999999998
 74
0
  0
LTYPE
  5
51
100
AcDbSymbolTableRecord
100
AcDbLinetypeTableRecord
  2
ACAD_ISO04W100
 70
0
  3
ISO long-dash dot ____ . ____ . ____ . ____ . _
 72
65
 73
4
 40
30.0
 49
24.0
 74
0
 49
-3.0
 74
0
 49
0.0
 74
0
 49
-3.0
 74
0
  0
LTYPE
  5
52
100
AcDbSymbolTableRecord
100
AcDbLinetypeTableRecord
  2
BORDERX2
 70
0
  3
Border (2x) ____  ____  .  ____  ____  .  ___
 72
65
 73
6
 40
88.899999999999991
 49
25.399999999999999
 74
0
 49
-12.699999999999999
 74
0
 49
25.399999999999999
 74
0
 49
-12.699999999999999
 74
0
 49
0.0
 74
0
 49
-12.699999999999999
 74
0
  0
LTYPE
  5
53
100
AcDbSymbolTableRecord
100
AcDbLinetypeTableRecord
  2
DIVIDE2
 70
0
  3
Divide (.5x) __..__..__..__..__..__..__..__.._
 72
65
 73
6
 40
15.875
 49
6.3499999999999996
 74
0
 49
-3.1749999999999998
 74
0
 49
0.0
 74
0
 49
-3.1749999999999998
 74
0
 49
0.0
 74
0
 49
-3.1749999999999998
 74
0
  0
LTYPE
  5
54
100
AcDbSymbolTableRecord
100
AcDbLinetypeTableRecord
  2
ACAD_ISO11W100
 70
0
  3
ISO double-dash dot __ __ . __ __ . __ __ . __ _
 72
65
 73
6
 40
33.0
 49
12.0
 74
0
 49
-3.0
 74
0
 49
12.0
 74
0
 49
-3.0
 74
0
 49
0.0
 74
0
 49
-3.0
 74
0
  0
LTYPE
  5
55
100
AcDbSymbolTableRecord
100
AcDbLinetypeTableRecord
  2
ACAD_ISO03W100
 70
0
  3
ISO dash space __    __    __    __    __    __
 72
65
 73
2
 40
30.0
 49
12.0
 74
0
 49
-18.0
 74
0
  0
LTYPE
  5
56
100
AcDbSymbolTableRecord
100
AcDbLinetypeTableRecord
  2
HIDDEN
 70
0
  3
Hidden __ __ __ __ __ __ __ __ __ __ __ __ __ __
 72
65
 73
2
 40
9.5249999999999986
 49
6.3499999999999996
 74
0
 49
-3.1749999999999998
 74
0
  0
ENDTAB
  0
TABLE
  2
LAYER
  5
2
100
AcDbSymbolTable
 70
4
  0
LAYER
  5
57
100
AcDbSymbolTableRecord
100
AcDbLayerTableRecord
  2
Au\U+00dfen
 70
0
 62
1
420
16711680
  6
Continuous
370
-3
390
F
  0
LAYER
  5
58
100
AcDbSymbolTableRecord
100
AcDbLayerTableRecord
  2
innen
 70
0
 62
3
420
65280
  6
Continuous
370
140
390
F
  0
LAYER
  5
59
100
AcDbSymbolTableRecord
100
AcDbLayerTableRecord
  2
Bema\U+00dfung
 70
0
 62
2
420
16776960
  6
Continuous
370
-3
390
F
  0
LAYER
  5
10
100
AcDbSymbolTableRecord
100
AcDbLayerTableRecord
  2
0
 70
0
 62
7
420
16777215
  6
Continuous
370
-3
390
F
  0
ENDTAB
  0
TABLE
  2
STYLE
  5
3
100
AcDbSymbolTable
 70
2
  0
STYLE
  5
5A
100
AcDbSymbolTableRecord
100
AcDbTextStyleTableRecord
  2
Standard
 70
0
 40
0.0
 41
1.0
 50
0.0
 71
0
 42
2.5
  3

  4

1001
ACAD
1000
txt
1071
0
  0
STYLE
  5
5B
100
AcDbSymbolTableRecord
100
AcDbTextStyleTableRecord
  2
textstyle0
 70
0
 40
0.0
 41
1.0
 50
0.0
 71
0
 42
30.0
  3

  4

1001
ACAD
1000
Hack
1071
33554432
  0
ENDTAB
  0
TABLE
  2
VIEW
  5
6
100
AcDbSymbolTable
 70
0
  0
ENDTAB
  0
TABLE
  2
UCS
  5
7
100
AcDbSymbolTable
 70
0
  0
ENDTAB
  0
TABLE
  2
APPID
  5
9
100
AcDbSymbolTable
 70
1
  0
APPID
  5
12
100
AcDbSymbolTableRecord
100
AcDbRegAppTableRecord
  2
ACAD
 70
0
  0
APPID
  5
5C
100
AcDbSymbolTableRecord
100
AcDbRegAppTableRecord
  2
QCAD
 70
0
  0
ENDTAB
  0
TABLE
  2
DIMSTYLE
  5
A
100
AcDbSymbolTable
 70
1
100
AcDbDimStyleTable
 71
0
  0
DIMSTYLE
105
27
100
AcDbSymbolTableRecord
100
AcDbDimStyleTableRecord
  2
Standard
 41
20.0
 42
5.0
 43
3.75
 44
10.0
 70
0
 73
0
 74
0
 77
1
 78
8
140
20.0
141
2.5
143
0.03937007874016
147
5.0
171
3
172
1
271
2
272
2
274
3
278
44
283
0
284
8
340
5A
  0
ENDTAB
  0
TABLE
  2
BLOCK_RECORD
  5
1
100
AcDbSymbolTable
 70
1
  0
BLOCK_RECORD
  5
1F
100
AcDbSymbolTableRecord
100
AcDbBlockTableRecord
  2
*Model_Space
340
22
  0
BLOCK_RECORD
  5
1B
100
AcDbSymbolTableRecord
100
AcDbBlockTableRecord
  2
*Paper_Space
340
1E
  0
BLOCK_RECORD
  5
23
100
AcDbSymbolTableRecord
100
AcDbBlockTableRecord
  2
*Paper_Space0
340
26
  0
ENDTAB
  0
ENDSEC
  0
SECTION
  2
BLOCKS
  0
BLOCK
  5
20
100
AcDbEntity
  8
0
100
AcDbBlockBegin
  2
*Model_Space
 70
0
 10
0.0
 20
0.0
 30
0.0
  3
*Model_Space
  1

  0
ENDBLK
  5
21
100
AcDbEntity
  8
0
100
AcDbBlockEnd
  0
BLOCK
  5
1C
100
AcDbEntity
 67
1
  8
0
100
AcDbBlockBegin
  2
*Paper_Space
 70
0
 10
0.0
 20
0.0
 30
0.0
  3
*Paper_Space
  1

  0
ENDBLK
  5
1D
100
AcDbEntity
 67
1
  8
0
100
AcDbBlockEnd
  0
BLOCK
  5
24
100
AcDbEntity
  8
0
100
AcDbBlockBegin
  2
*Paper_Space0
 70
0
 10
0.0
 20
0.0
 30
0.0
  3
*Paper_Space0
  1

  0
ENDBLK
  5
25
100
AcDbEntity
  8
0
100
AcDbBlockEnd
  0
ENDSEC
  0
SECTION
  2
ENTITIES
  0
IMAGE
  5
5D
100
AcDbEntity
  8
0
 62
256
370
-1
 48
1.0
  6
BYLAYER
100
AcDbRasterImage
 90
0
 10
10.0
 20
10.0
 30
0.0
 11
0.1
 21
0.0
 31
0.0
 12
0.0
 22
0.1
 32
0.0
 13
100.0
 23
100.0
340
5E
 70
15
280
0
281
50
282
50
283
0
  0
TEXT
  5
5F
100
AcDbEntity
  8
0
 62
256
370
-1
 48
1.0
  6
BYLAYER
100
AcDbText
 10
600.0
 20
0.0
 30
0.0
 40
30.0
  1
Einstieg in QCAD
 50
0.0
 41
1.0
  7
textstyle0
 71
0
 72
1
 11
280.0
 21
200.0
 31
0.0
100
AcDbText
 73
2
  0
LINE
  5
60
100
AcDbEntity
  8
0
 62
256
370
-1
 48
1.0
  6
BYLAYER
100
AcDbLine
 10
0.0
 20
0.0
 30
0.0
 11
500.0
 21
0.0
 31
0.0
  0
LINE
  5
61
100
AcDbEntity
  8
0
 62
256
370
-1
 48
1.0
  6
BYLAYER
100
AcDbLine
 10
500.0
 20
0.0
 30
0.0
 11
500.0
 21
240.0
 31
0.0
  0
LINE
  5
62
100
AcDbEntity
  8
0
 62
256
370
-1
 48
1.0
  6
BYLAYER
100
AcDbLine
 10
500.0
 20
240.0
 30
0.0
 11
0.0
 21
240.0
 31
0.0
  0
LINE
  5
63
100
AcDbEntity
  8
0
 62
256
370
-1
 48
1.0
  6
BYLAYER
100
AcDbLine
 10
0.0
 20
240.0
 30
0.0
 11
0.0
 21
0.0
 31
0.0
  0
LINE
  5
64
100
AcDbEntity
  8
Au\U+00dfen
 62
256
370
-1
 48
1.0
  6
BYLAYER
100
AcDbLine
 10
250.0
 20
90.0
 30
0.0
 11
316.76503829600381
 21
90.0
 31
0.0
  0
LINE
  5
65
100
AcDbEntity
  8
Au\U+00dfen
 62
256
370
-1
 48
1.0
  6
BYLAYER
100
AcDbLine
 10
316.76503829600381
 20
90.0
 30
0.0
 11
316.76503829600381
 21
32.887157779529801
 31
0.0
  0
LINE
  5
66
100
AcDbEntity
  8
Au\U+00dfen
 62
256
370
-1
 48
1.0
  6
BYLAYER
100
AcDbLine
 10
316.76503829600381
 20
32.887157779529801
 30
0.0
 11
250.0
 21
32.887157779529801
 31
0.0
  0
LINE
  5
67
100
AcDbEntity
  8
Au\U+00dfen
 62
256
370
-1
 48
1.0
  6
BYLAYER
100
AcDbLine
 10
250.0
 20
32.887157779529801
 30
0.0
 11
250.0
 21
90.0
 31
0.0
  0
LINE
  5
68
100
AcDbEntity
  8
innen
 62
256
370
-1
 48
1.0
  6
BYLAYER
100
AcDbLine
 10
350.0
 20
60.0
 30
0.0
 11
470.0
 21
120.0
 31
0.0
  0
LINE
  5
69
100
AcDbEntity
  8
innen
 62
256
370
-1
 48
1.0
  6
BYLAYER
100
AcDbLine
 10
350.0
 20
20.0
 30
0.0
 11
479.92952813179119
 21
15.882421866122696
 31
0.0
  0
CIRCLE
  5
6A
100
AcDbEntity
  8
innen
 62
256
370
-1
 48
1.0
  6
BYLAYER
100
AcDbCircle
 10
406.26811081640932
 20
51.236004044179701
 30
0.0
 40
33.002620499999999
  0
DIMENSION
  5
6B
100
AcDbEntity
  8
Bema\U+00dfung
 62
256
370
-1
 48
1.0
  6
BYLAYER
100
AcDbDimension
 10
84.600000000000009
 20
140.0
 30
0.0
 11
280.0
 21
160.0
 31
0.0
 70
128
 71
8
 72
2
 74
0
 75
0
 41
1.0
 42
0.0
  1

  3
Standard
100
AcDbAlignedDimension
 13
84.600000000000009
 23
185.0
 33
0.0
 14
475.45452559652824
 24
199.9629691197141
 34
0.0
 50
0.0
100
AcDbRotatedDimension
1001
ACAD
1000
DSTYLE
1002
{
1070
279
1070
2
1070
144
1040
1.0
1070
40
1040
0.5
1002
}
  0
DIMENSION
  5
6C
100
AcDbEntity
  8
Bema\U+00dfung
 62
256
370
-1
 48
1.0
  6
BYLAYER
100
AcDbDimension
 10
479.92952813179119
 20
15.882421866122696
 30
0.0
 11
474.91871483075903
 21
61.013481225922021
 31
0.0
 70
130
 71
8
 72
2
 74
0
 75
0
 41
1.0
 42
0.0
  1

  3
Standard
100
AcDb2LineAngularDimension
 13
470.0
 23
120.0
 33
0.0
 14
350.0
 24
60.0
 34
0.0
 15
350.0
 25
20.0
 35
0.0
 16
470.0
 26
30.0
 36
0.0
  0
DIMENSION
  5
6D
100
AcDbEntity
  8
Bema\U+00dfung
 62
256
370
-1
 48
1.0
  6
BYLAYER
100
AcDbDimension
 10
435.10885512621621
 20
67.279208936935049
 30
0.0
 11
401.44654331902387
 21
59.288924434133236
 31
0.0
 70
131
 71
8
 72
2
 74
0
 75
0
 41
1.0
 42
0.0
  1

  3
Standard
100
AcDbDiametricDimension
 15
377.42736650660248
 25
35.192799151424339
 35
0.0
 40
0.0
1001
ACAD
1000
DSTYLE
1002
{
1070
279
1070
2
1070
144
1040
1.0
1070
40
1040
0.5
1002
}
  0
CIRCLE
  5
6E
100
AcDbEntity
  8
Au\U+00dfen
 62
256
370
-1
 48
1.0
  6
BYLAYER
100
AcDbCircle
 10
283.3825191480019
 20
61.4435788897649
 30
0.0
 40
28.556421110235103
  0
CIRCLE
  5
6F
100
AcDbEntity
  8
Au\U+00dfen
 62
256
370
-1
 48
1.0
  6
BYLAYER
100
AcDbCircle
 10
283.3825191480019
 20
61.4435788897649
 30
0.0
 40
25.556421110235103
  0
CIRCLE
  5
70
100
AcDbEntity
  8
Au\U+00dfen
 62
256
370
-1
 48
1.0
  6
BYLAYER
100
AcDbCircle
 10
283.3825191480019
 20
61.4435788897649
 30
0.0
 40
22.556421110235103
  0
CIRCLE
  5
71
100
AcDbEntity
  8
Au\U+00dfen
 62
256
370
-1
 48
1.0
  6
BYLAYER
100
AcDbCircle
 10
283.3825191480019
 20
61.4435788897649
 30
0.0
 40
19.556421110235103
  0
CIRCLE
  5
72
100
AcDbEntity
  8
Au\U+00dfen
 62
256
370
-1
 48
1.0
  6
BYLAYER
100
AcDbCircle
 10
283.3825191480019
 20
61.4435788897649
 30
0.0
 40
16.556421110235103
  0
CIRCLE
  5
73
100
AcDbEntity
  8
Au\U+00dfen
 62
256
370
-1
 48
1.0
  6
BYLAYER
100
AcDbCircle
 10
283.3825191480019
 20
61.4435788897649
 30
0.0
 40
13.556421110235101
  0
CIRCLE
  5
74
100
AcDbEntity
  8
Au\U+00dfen
 62
256
370
-1
 48
1.0
  6
BYLAYER
100
AcDbCircle
 10
250.0
 20
80.0
 30
0.0
 40
0.1
  0
ENDSEC
  0
SECTION
  2
OBJECTS
  0
DICTIONARY
  5
C
100
AcDbDictionary
280
0
281
1
  3
ACAD_GROUP
350
D
  3
ACAD_LAYOUT
350
1A
  3
ACAD_MLINESTYLE
350
17
  3
ACAD_PLOTSETTINGS
350
19
  3
ACAD_PLOTSTYLENAME
350
E
  3
AcDbVariableDictionary
350
75
  3
QCAD_OBJECTS
350
76
  0
DICTIONARY
  5
D
100
AcDbDictionary
280
0
281
1
  0
ACDBDICTIONARYWDFLT
  5
E
100
AcDbDictionary
281
1
  3
Normal
350
F
100
AcDbDictionaryWithDefault
340
F
  0
ACDBPLACEHOLDER
  5
F
  0
DICTIONARY
  5
17
100
AcDbDictionary
280
0
281
1
  3
Standard
350
18
  0
MLINESTYLE
  5
18
100
AcDbMlineStyle
  2
STANDARD
 70
0
  3

 62
256
 51
90.0
 52
90.0
 71
2
 49
0.5
 62
256
  6
BYLAYER
 49
-0.5
 62
256
  6
BYLAYER
  0
DICTIONARY
  5
19
100
AcDbDictionary
280
0
281
1
  0
DICTIONARY
  5
1A
100
AcDbDictionary
281
1
  3
Layout1
350
1E
  3
Layout2
350
26
  3
Model
350
22
  0
LAYOUT
  5
1E
100
AcDbPlotSettings
  1

  2
none_device
  4

  6

 40
0.0
 41
0.0
 42
0.0
 43
0.0
 44
0.0
 45
0.0
 46
0.0
 47
0.0
 48
0.0
 49
0.0
140
0.0
141
0.0
142
1.0
143
1.0
 70
688
 72
0
 73
0
 74
5
  7

 75
16
147
1.0
148
0.0
149
0.0
100
AcDbLayout
  1
Layout1
 70
1
 71
1
 10
0.0
 20
0.0
 11
420.0
 21
297.0
 12
0.0
 22
0.0
 32
0.0
 14
100000000000000000000.0
 24
100000000000000000000.0
 34
100000000000000000000.0
 15
-100000000000000000000.0
 25
-100000000000000000000.0
 35
-100000000000000000000.0
146
0.0
 13
0.0
 23
0.0
 33
0.0
 16
1.0
 26
0.0
 36
0.0
 17
0.0
 27
1.0
 37
0.0
 76
0
330
1B
  0
LAYOUT
  5
22
100
AcDbPlotSettings
  1

  2
none_device
  4

  6

 40
0.0
 41
0.0
 42
0.0
 43
0.0
 44
0.0
 45
0.0
 46
0.0
 47
0.0
 48
0.0
 49
0.0
140
0.0
141
0.0
142
1.0
143
1.0
 70
1712
 72
0
 73
0
 74
0
  7

 75
0
147
1.0
148
0.0
149
0.0
100
AcDbLayout
  1
Model
 70
1
 71
0
 10
0.0
 20
0.0
 11
12.0
 21
9.0
 12
0.0
 22
0.0
 32
0.0
 14
0.0
 24
0.0
 34
0.0
 15
0.0
 25
0.0
 35
0.0
146
0.0
 13
0.0
 23
0.0
 33
0.0
 16
1.0
 26
0.0
 36
0.0
 17
0.0
 27
1.0
 37
0.0
 76
0
330
1F
  0
LAYOUT
  5
26
100
AcDbPlotSettings
  1

  2
none_device
  4

  6

 40
0.0
 41
0.0
 42
0.0
 43
0.0
 44
0.0
 45
0.0
 46
0.0
 47
0.0
 48
0.0
 49
0.0
140
0.0
141
0.0
142
1.0
143
1.0
 70
688
 72
0
 73
0
 74
5
  7

 75
16
147
1.0
148
0.0
149
0.0
100
AcDbLayout
  1
Layout2
 70
1
 71
2
 10
0.0
 20
0.0
 11
12.0
 21
9.0
 12
0.0
 22
0.0
 32
0.0
 14
0.0
 24
0.0
 34
0.0
 15
0.0
 25
0.0
 35
0.0
146
0.0
 13
0.0
 23
0.0
 33
0.0
 16
1.0
 26
0.0
 36
0.0
 17
0.0
 27
1.0
 37
0.0
 76
0
330
23
  0
DICTIONARY
  5
75
100
AcDbDictionary
281
1
  3
DIMASSOC
350
78
  3
HIDETEXT
350
77
  0
DICTIONARYVAR
  5
77
100
DictionaryVariables
280
0
  1
2
  0
DICTIONARYVAR
  5
78
100
DictionaryVariables
280
0
  1
1
  0
DICTIONARY
  5
76
100
AcDbDictionary
281
1
  3
ColorSettings/BackgroundColor
350
79
  3
ColorSettings/ColorMode
350
7A
  3
Grid/DisplayGrid00
350
7B
  3
Grid/DisplayGrid01
350
7C
  3
Grid/DisplayGrid02
350
7D
  3
Grid/DisplayGrid03
350
7E
  3
Grid/GridSpacingX00
350
7F
  3
Grid/GridSpacingX01
350
80
  3
Grid/GridSpacingX02
350
81
  3
Grid/GridSpacingX03
350
82
  3
Grid/GridSpacingY00
350
83
  3
Grid/GridSpacingY01
350
84
  3
Grid/GridSpacingY02
350
85
  3
Grid/GridSpacingY03
350
86
  3
Grid/IsometricGrid00
350
87
  3
Grid/IsometricGrid01
350
88
  3
Grid/IsometricGrid02
350
89
  3
Grid/IsometricGrid03
350
8A
  3
Grid/IsometricProjection00
350
8B
  3
Grid/IsometricProjection01
350
8C
  3
Grid/IsometricProjection02
350
8D
  3
Grid/IsometricProjection03
350
8E
  3
Grid/MetaGridSpacingX00
350
8F
  3
Grid/MetaGridSpacingX01
350
90
  3
Grid/MetaGridSpacingX02
350
91
  3
Grid/MetaGridSpacingX03
350
92
  3
Grid/MetaGridSpacingY00
350
93
  3
Grid/MetaGridSpacingY01
350
94
  3
Grid/MetaGridSpacingY02
350
95
  3
Grid/MetaGridSpacingY03
350
96
  3
MultiPageSettings/Columns
350
97
  3
MultiPageSettings/GlueMarginsBottom
350
98
  3
MultiPageSettings/GlueMarginsLeft
350
99
  3
MultiPageSettings/GlueMarginsRight
350
9A
  3
MultiPageSettings/GlueMarginsTop
350
9B
  3
MultiPageSettings/PrintCropMarks
350
9C
  3
MultiPageSettings/Rows
350
9D
  3
PageSettings/OffsetX
350
9E
  3
PageSettings/OffsetY
350
9F
  3
PageSettings/PageOrientation
350
A0
  3
PageSettings/PaperHeight
350
A1
  3
PageSettings/PaperWidth
350
A2
  3
PageSettings/Scale
350
A3
  3
PageSettings/ShowPaperBorders
350
A4
  3
QCADVersion
350
A5
  3
UnitSettings/PaperUnit
350
A6
  3
ViewportCenter
350
A7
  3
ViewportHeight
350
A8
  3
ViewportWidth
350
A9
  0
XRECORD
  5
79
330
76
100
AcDbXrecord
280
1
1000
Weiss
  0
XRECORD
  5
7A
330
76
100
AcDbXrecord
280
1
1000
FullColor
  0
XRECORD
  5
7B
330
76
100
AcDbXrecord
280
1
290
1
  0
XRECORD
  5
7C
330
76
100
AcDbXrecord
280
1
290
1
  0
XRECORD
  5
7D
330
76
100
AcDbXrecord
280
1
290
1
  0
XRECORD
  5
7E
330
76
100
AcDbXrecord
280
1
290
1
  0
XRECORD
  5
7F
330
76
100
AcDbXrecord
280
1
1000
auto
  0
XRECORD
  5
80
330
76
100
AcDbXrecord
280
1
1000
auto
  0
XRECORD
  5
81
330
76
100
AcDbXrecord
280
1
1000
auto
  0
XRECORD
  5
82
330
76
100
AcDbXrecord
280
1
1000
auto
  0
XRECORD
  5
83
330
76
100
AcDbXrecord
280
1
1000
auto
  0
XRECORD
  5
84
330
76
100
AcDbXrecord
280
1
1000
auto
  0
XRECORD
  5
85
330
76
100
AcDbXrecord
280
1
1000
auto
  0
XRECORD
  5
86
330
76
100
AcDbXrecord
280
1
1000
auto
  0
XRECORD
  5
87
330
76
100
AcDbXrecord
280
1
290
0
  0
XRECORD
  5
88
330
76
100
AcDbXrecord
280
1
290
0
  0
XRECORD
  5
89
330
76
100
AcDbXrecord
280
1
290
0
  0
XRECORD
  5
8A
330
76
100
AcDbXrecord
280
1
290
0
  0
XRECORD
  5
8B
330
76
100
AcDbXrecord
280
1
 90
65537
  0
XRECORD
  5
8C
330
76
100
AcDbXrecord
280
1
 90
65537
  0
XRECORD
  5
8D
330
76
100
AcDbXrecord
280
1
 90
65537
  0
XRECORD
  5
8E
330
76
100
AcDbXrecord
280
1
 90
65537
  0
XRECORD
  5
8F
330
76
100
AcDbXrecord
280
1
1000
auto
  0
XRECORD
  5
90
330
76
100
AcDbXrecord
280
1
1000
auto
  0
XRECORD
  5
91
330
76
100
AcDbXrecord
280
1
1000
auto
  0
XRECORD
  5
92
330
76
100
AcDbXrecord
280
1
1000
auto
  0
XRECORD
  5
93
330
76
100
AcDbXrecord
280
1
1000
auto
  0
XRECORD
  5
94
330
76
100
AcDbXrecord
280
1
1000
auto
  0
XRECORD
  5
95
330
76
100
AcDbXrecord
280
1
1000
auto
  0
XRECORD
  5
96
330
76
100
AcDbXrecord
280
1
1000
auto
  0
XRECORD
  5
97
330
76
100
AcDbXrecord
280
1
 90
1
  0
XRECORD
  5
98
330
76
100
AcDbXrecord
280
1
 40
10.0
  0
XRECORD
  5
99
330
76
100
AcDbXrecord
280
1
 40
10.0
  0
XRECORD
  5
9A
330
76
100
AcDbXrecord
280
1
 40
10.0
  0
XRECORD
  5
9B
330
76
100
AcDbXrecord
280
1
 40
10.0
  0
XRECORD
  5
9C
330
76
100
AcDbXrecord
280
1
290
0
  0
XRECORD
  5
9D
330
76
100
AcDbXrecord
280
1
 90
1
  0
XRECORD
  5
9E
330
76
100
AcDbXrecord
280
1
 40
0.0
  0
XRECORD
  5
9F
330
76
100
AcDbXrecord
280
1
 40
0.0
  0
XRECORD
  5
A0
330
76
100
AcDbXrecord
280
1
1000
Portrait
  0
XRECORD
  5
A1
330
76
100
AcDbXrecord
280
1
 40
297.0
  0
XRECORD
  5
A2
330
76
100
AcDbXrecord
280
1
 40
210.0
  0
XRECORD
  5
A3
330
76
100
AcDbXrecord
280
1
1000
1:1
  0
XRECORD
  5
A4
330
76
100
AcDbXrecord
280
1
290
1
  0
XRECORD
  5
A5
330
76
100
AcDbXrecord
280
1
1000
3.22.0
  0
XRECORD
  5
A6
330
76
100
AcDbXrecord
280
1
 90
4
  0
XRECORD
  5
A8
330
76
100
AcDbXrecord
280
1
 40
320.56585450294381
  0
XRECORD
  5
A9
330
76
100
AcDbXrecord
280
1
 40
640.65110052837201
  0
IMAGEDEF
  5
5E
100
AcDbRasterImageDef
 90
0
  1
C:/Users/Thk/Pictures/Logo_medium_white1000.png
 10
100.0
 20
100.0
 11
1.0
 21
1.0
280
1
281
0
  0
ENDSEC
  0
EOF
